Untitled
…
We can combine the separate_rows command with pivot_wider to create indicator variables for each of the drink types.

wsd %>%
  select(ID, Q4) %>%
  separate_rows(Q4, sep = ',') %>%
  mutate(Checked = 1) %>%
  pivot_wider(names_from = Q4,
              values_from = Checked,
              values_fill = 0)

## # A tibble: 34 x 11
##       ID Coffee Water `The tears of m~   Tea  Milk `Fruit Juice` `Fizzy Water`
##    <dbl>  <dbl> <dbl>            <dbl> <dbl> <dbl>         <dbl>         <dbl>
##  1  5106      1     1                1     0     0             0             0
##  2  6633      1     1                0     1     1             0             0
##  3  7599      0     1                0     1     0             1             1
##  4  4425      1     1                0     0     0             1             0
##  5  2495      1     1                0     0     0             0             0
##  6  6355      0     1                0     1     0             1             0
##  7  8810      1     0                1     0     0             0             1
##  8  3877      0     1                1     1     1             0             1
##  9  1554      0     1                1     0     0             1             0
## 10  7743      0     1                0     1     1             1             1
## # ... with 24 more rows, and 3 more variables: `A delicious 12 year single malt
## #   scotch from the Scottish lowlands with notes of apple` <dbl>, `
## #   cinnamon` <dbl>, ` and dried fruit served with a single ice cube` <dbl>
…
